#include <stdio.h>

int main(int argc, char const *argv[])
 {
  int i,j,m;

  for (i=6 ; i>=1 ; i--) {
    for (m=1; m<=6-j;m++){
      
    }for(j=1;j<=i;j++){
      printf("+" );
    }
    printf("\n" );
  }
return 0;}

