#include<stdio.h>



int main(int argc, char const *argv[])
 {
   float preciopza=450;
   float preciopza2=435;
   float  pzaven=0;
   float  total=0;
   printf("\t::::::::::::::::::::::::::::::::::::::::::::::::::::::::::::::::::\n");
   printf("\t::::::::::::::::::CALCULA TUS COMISIONES::::::::::::::::::::::::::\n");
   printf("\t::::::::::::::::::::::::::::::::::::::::::::::::::::::::::::::::::\n");

 printf("\t\t====Introduce el total de productos vendidos====\n");
scanf("%f",&pzaven );
if (pzaven<=12 )
{
  total=(preciopza)*(pzaven)*5.0/100.0;
  printf("\t **************El total de tu sueldo es $%.2fMnx****************\n",total );

}else { if (pzaven==13 && pzaven<=24)
{
  total=(preciopza)*(pzaven)*7.0/100.0;
  printf("\t **************El total de tu sueldo es $%.2fMnx****************\n",total );
}else {
  if (pzaven==25 && pzaven<=29)
  {
    total=(preciopza2)*(pzaven)*7.0/100.0;
    printf("\t **************El total de tu sueldo es $%.2fMnx****************\n",total );
  }else {
    if (pzaven>=30)
    {
      total=(preciopza2)*(pzaven)*10.0/100;
      printf("\t **************El total de tu sueldo es $%.2fMnx****************\n",total );
    }

  }
}
}


  return 0;
}

